service_id,date,exception_type
IDFM:11973,20211027,1
IDFM:12006,20211029,1
IDFM:12006,20211028,1
IDFM:12006,20211026,1
IDFM:12006,20211025,1
IDFM:25683,20211030,1
IDFM:25683,20211029,2
IDFM:25683,20211028,2
IDFM:25683,20211027,2
IDFM:25683,20211026,2
IDFM:25683,20211025,2
IDFM:36628,20211027,1
IDFM:45359,20211029,1
IDFM:45359,20211028,1
IDFM:45359,20211026,1
IDFM:45359,20211025,1
IDFM:58430,20211024,1
IDFM:59588,20211027,2
IDFM:59650,20211026,1
IDFM:59683,20211029,1
IDFM:59683,20211028,1
IDFM:59683,20211027,1
IDFM:59684,20211029,1
IDFM:59684,20211028,1
IDFM:94811,20211026,1
IDFM:99034,20211030,1
IDFM:99034,20211029,1
IDFM:99034,20211028,1
IDFM:99034,20211027,1
IDFM:99034,20211026,1
IDFM:100193,20211029,2
IDFM:100193,20211028,2
IDFM:100193,20211027,2
IDFM:100193,20211026,2
IDFM:100193,20211025,2
IDFM:107000,20211018,1
IDFM:107000,20211025,1
IDFM:109411,20211024,2
IDFM:109411,20211030,1
IDFM:109411,20211029,1
IDFM:109411,20211028,1
IDFM:109411,20211027,1
IDFM:109411,20211026,1
IDFM:109515,20211023,2
IDFM:109515,20211029,1
IDFM:109515,20211028,1
IDFM:109515,20211027,1
IDFM:109515,20211026,1
IDFM:109515,20211025,1
IDFM:110233,20211018,2
IDFM:110565,20211017,2
IDFM:113366,20211007,1
IDFM:113366,20211006,1
IDFM:113366,20211005,1
IDFM:113634,20211029,1
IDFM:113634,20211028,1
IDFM:113634,20211027,1
IDFM:113634,20211026,1
IDFM:113634,20211025,2
IDFM:113637,20211025,2
IDFM:114271,20211029,1
IDFM:114271,20211028,1
IDFM:114271,20211027,1
IDFM:114271,20211026,1
IDFM:114271,20211025,2
IDFM:114273,20211025,2
IDFM:114962,20211029,1
IDFM:114962,20211028,1
IDFM:114962,20211027,1
IDFM:114962,20211026,1
IDFM:114962,20211025,1
IDFM:121934,20211030,1
IDFM:121934,20211029,1
IDFM:121934,20211028,1
IDFM:121934,20211027,1
IDFM:121934,20211026,1
IDFM:135052,20211022,1
IDFM:135052,20211021,1
IDFM:135052,20211020,1
IDFM:135052,20211019,1
IDFM:135052,20211018,1
IDFM:135052,20211029,1
IDFM:135052,20211028,1
IDFM:135052,20211027,1
IDFM:135052,20211026,1
IDFM:135052,20211025,1
IDFM:135084,20211007,1
IDFM:135084,20211006,1
IDFM:135084,20211005,1
IDFM:135084,20211004,1
IDFM:135084,20211014,1
IDFM:135084,20211013,1
IDFM:135084,20211012,1
IDFM:135084,20211011,1
IDFM:135084,20211022,2
IDFM:135084,20211029,2
IDFM:135090,20211023,2
IDFM:135091,20211007,1
IDFM:135091,20211006,1
IDFM:135091,20211005,1
IDFM:135091,20211017,1
IDFM:135091,20211014,1
IDFM:135091,20211013,1
IDFM:135091,20211012,1
IDFM:135091,20211024,1
IDFM:135091,20211022,2
IDFM:135093,20211007,1
IDFM:135093,20211006,1
IDFM:135093,20211005,1
IDFM:135093,20211014,1
IDFM:135093,20211013,1
IDFM:135093,20211012,1
IDFM:135093,20211023,2
IDFM:135093,20211022,2
IDFM:135094,20211023,1
IDFM:135094,20211022,1
IDFM:135094,20211021,1
IDFM:135094,20211020,1
IDFM:135094,20211019,1
IDFM:135094,20211030,1
IDFM:135094,20211029,1
IDFM:135094,20211028,1
IDFM:135094,20211027,1
IDFM:135094,20211026,1
IDFM:135100,20211022,1
IDFM:135100,20211021,1
IDFM:135100,20211020,1
IDFM:135100,20211019,1
IDFM:135100,20211018,1
IDFM:135100,20211029,1
IDFM:135100,20211028,1
IDFM:135100,20211027,1
IDFM:135100,20211026,1
IDFM:135100,20211025,1
IDFM:135110,20211023,1
IDFM:135110,20211022,1
IDFM:135110,20211021,1
IDFM:135110,20211020,1
IDFM:135110,20211019,1
IDFM:135110,20211030,1
IDFM:135110,20211029,1
IDFM:135110,20211028,1
IDFM:135110,20211027,1
IDFM:135110,20211026,1
IDFM:137314,20211021,1
IDFM:137314,20211019,1
IDFM:137314,20211018,1
IDFM:137314,20211028,1
IDFM:137314,20211026,1
IDFM:137314,20211025,1
IDFM:140318,20211023,2
IDFM:140680,20211022,1
IDFM:140680,20211029,1
IDFM:142231,20211028,1
IDFM:142231,20211027,1
IDFM:142231,20211026,1
IDFM:142231,20211025,1
IDFM:142978,20211028,1
IDFM:142978,20211027,1
IDFM:142978,20211026,1
IDFM:142978,20211025,1
IDFM:145335,20211007,1
IDFM:145335,20211006,1
IDFM:145335,20211005,1
IDFM:145335,20211004,1
IDFM:149079,20211029,1
IDFM:149079,20211028,1
IDFM:149079,20211027,1
IDFM:149079,20211026,1
IDFM:149079,20211025,1
IDFM:151055,20211029,1
IDFM:151055,20211028,1
IDFM:151055,20211027,1
IDFM:151055,20211026,1
IDFM:151055,20211025,1
IDFM:151677,20211008,2
IDFM:151677,20211015,2
IDFM:151677,20211022,2
IDFM:151677,20211028,1
IDFM:151677,20211027,1
IDFM:151677,20211026,1
IDFM:155650,20211029,1
IDFM:155650,20211028,1
IDFM:155650,20211027,1
IDFM:155650,20211026,1
IDFM:167667,20211028,1
IDFM:169703,20211009,2
IDFM:172029,20211010,2
IDFM:172183,20211009,2
IDFM:174413,20211028,2
IDFM:174413,20211027,2
IDFM:174413,20211025,2
IDFM:176087,20211029,2
IDFM:176087,20211028,2
IDFM:176087,20211027,2
IDFM:176087,20211026,2
IDFM:176211,20211028,2
IDFM:176211,20211027,2
IDFM:176211,20211026,2
IDFM:176211,20211025,2
IDFM:179538,20211029,1
IDFM:188785,20211028,1
IDFM:188785,20211027,1
IDFM:188785,20211026,1
IDFM:188785,20211025,1
IDFM:192051,20211008,2
IDFM:192051,20211015,2
IDFM:192051,20211022,2
IDFM:192051,20211030,1
IDFM:192051,20211028,1
IDFM:192051,20211027,1
IDFM:192051,20211026,1
IDFM:192835,20211007,1
IDFM:192835,20211006,1
IDFM:192835,20211005,1
IDFM:192835,20211014,1
IDFM:192835,20211013,1
IDFM:192835,20211012,1
IDFM:192835,20211023,2
IDFM:192835,20211022,2
IDFM:194037,20211023,1
IDFM:194037,20211022,1
IDFM:194037,20211021,1
IDFM:194037,20211020,1
IDFM:194037,20211019,1
IDFM:194037,20211030,1
IDFM:194037,20211029,1
IDFM:194037,20211028,1
IDFM:194037,20211027,1
IDFM:194037,20211026,1
IDFM:195715,20211029,1
IDFM:195715,20211028,1
IDFM:195715,20211027,1
IDFM:195715,20211026,1
IDFM:195715,20211025,1
IDFM:196340,20211023,1
IDFM:196340,20211030,1
IDFM:231721,20211030,1
IDFM:235118,20211010,2
IDFM:235118,20211017,2
IDFM:235139,20211011,2
IDFM:235139,20211018,2
IDFM:235142,20211009,2
IDFM:235142,20211016,2
IDFM:235253,20211023,2
IDFM:237130,20211007,1
IDFM:237130,20211006,1
IDFM:237130,20211005,1
IDFM:237134,20211007,1
IDFM:237134,20211006,1
IDFM:237134,20211005,1
IDFM:237134,20211004,1
IDFM:237135,20211007,1
IDFM:237135,20211006,1
IDFM:237135,20211005,1
IDFM:237135,20211004,1
IDFM:237168,20211015,2
IDFM:237168,20211014,2
IDFM:237168,20211013,2
IDFM:237168,20211012,2
IDFM:237168,20211011,2
IDFM:237168,20211022,2
IDFM:237168,20211021,2
IDFM:237168,20211020,2
IDFM:237168,20211019,2
IDFM:237168,20211018,2
IDFM:238333,20211016,2
IDFM:238333,20211023,2
IDFM:240760,20211022,1
IDFM:240760,20211021,1
IDFM:240760,20211020,1
IDFM:240760,20211019,1
IDFM:240760,20211029,1
IDFM:240760,20211028,1
IDFM:240760,20211027,1
IDFM:240760,20211026,1
IDFM:243965,20211024,1
IDFM:253461,20211022,1
IDFM:253461,20211021,1
IDFM:253461,20211019,1
IDFM:253461,20211018,1
IDFM:253461,20211029,1
IDFM:253461,20211028,1
IDFM:253461,20211026,1
IDFM:253461,20211025,1
IDFM:263247,20211023,1
IDFM:263247,20211030,1
IDFM:263247,20211029,1
IDFM:263247,20211028,1
IDFM:263247,20211027,1
IDFM:263247,20211026,1
IDFM:263247,20211025,1
IDFM:263261,20211029,1
IDFM:263261,20211028,1
IDFM:263261,20211027,1
IDFM:263261,20211026,1
IDFM:263261,20211025,1
IDFM:263270,20211023,2
IDFM:263270,20211029,1
IDFM:263270,20211028,1
IDFM:263270,20211027,1
IDFM:263270,20211026,1
IDFM:263270,20211025,1
IDFM:269152,20211021,1
IDFM:269152,20211020,1
IDFM:269152,20211019,1
IDFM:269152,20211018,1
IDFM:269152,20211028,1
IDFM:269152,20211027,1
IDFM:269152,20211026,1
IDFM:269152,20211025,1
IDFM:270033,20211008,2
IDFM:270033,20211007,2
IDFM:270033,20211006,2
IDFM:270033,20211005,2
IDFM:270033,20211015,2
IDFM:270033,20211014,2
IDFM:270033,20211013,2
IDFM:270033,20211012,2
IDFM:275914,20211021,1
IDFM:275914,20211020,1
IDFM:275914,20211019,1
IDFM:275914,20211018,1
IDFM:275914,20211022,2
IDFM:275914,20211028,1
IDFM:275914,20211027,1
IDFM:275914,20211026,1
IDFM:275914,20211025,1
IDFM:275915,20211022,2
IDFM:275924,20211010,1
IDFM:275925,20211011,2
IDFM:289267,20211007,1
IDFM:289267,20211006,1
IDFM:289267,20211005,1
IDFM:289267,20211004,1
IDFM:289267,20211014,1
IDFM:289267,20211013,1
IDFM:289267,20211012,1
IDFM:289267,20211011,1
IDFM:297776,20211022,1
IDFM:297776,20211021,1
IDFM:297776,20211020,1
IDFM:297776,20211019,1
IDFM:297776,20211018,1
IDFM:297776,20211029,1
IDFM:297776,20211028,1
IDFM:297776,20211027,1
IDFM:297776,20211026,1
IDFM:297776,20211025,1
IDFM:297848,20211007,1
IDFM:297848,20211006,1
IDFM:297848,20211005,1
IDFM:297848,20211004,1
IDFM:297848,20211014,1
IDFM:297848,20211013,1
IDFM:297848,20211012,1
IDFM:297848,20211011,1
IDFM:298265,20211021,1
IDFM:298265,20211020,1
IDFM:298265,20211019,1
IDFM:298265,20211018,1
IDFM:298265,20211028,1
IDFM:298265,20211027,1
IDFM:298265,20211026,1
IDFM:298265,20211025,1
IDFM:309556,20211029,1
IDFM:309556,20211028,1
IDFM:309556,20211027,1
IDFM:309556,20211026,1
IDFM:310404,20211005,2
IDFM:310404,20211004,2
IDFM:310457,20211004,2
IDFM:310471,20211003,2
IDFM:320448,20211030,1
IDFM:323043,20211028,1
IDFM:323043,20211027,1
IDFM:323043,20211026,1
IDFM:323043,20211025,1
IDFM:328905,20211028,1
IDFM:328905,20211027,1
IDFM:328905,20211025,1
IDFM:328905,20211026,2
IDFM:328921,20211028,1
IDFM:328921,20211027,1
IDFM:328921,20211025,1
IDFM:328977,20211029,1
IDFM:328977,20211026,1
IDFM:328977,20211028,2
IDFM:328977,20211027,2
IDFM:328977,20211025,2
IDFM:329427,20211028,1
IDFM:329427,20211027,1
IDFM:329427,20211025,1
IDFM:329572,20211028,2
IDFM:329572,20211027,2
IDFM:329572,20211025,2
IDFM:329589,20211029,1
IDFM:329589,20211026,1
IDFM:330819,20211029,1
IDFM:330819,20211026,1
IDFM:352810,20211004,1
IDFM:352810,20211011,1
IDFM:353625,20211004,1
IDFM:353625,20211011,1
IDFM:367526,20211030,1
IDFM:367526,20211027,2
IDFM:381821,20211024,2
IDFM:381821,20211023,2
IDFM:382110,20211002,2
IDFM:382110,20211010,1
IDFM:382110,20211017,1
IDFM:382110,20211023,2
IDFM:382113,20211024,2
IDFM:382113,20211023,2
IDFM:382136,20211002,2
IDFM:382136,20211023,2
IDFM:382232,20211010,2
IDFM:382232,20211009,2
IDFM:382232,20211017,2
IDFM:382232,20211016,2
IDFM:382521,20211023,2
IDFM:382799,20211014,2
IDFM:382799,20211013,2
IDFM:382799,20211012,2
IDFM:382799,20211011,2
IDFM:383088,20211024,2
IDFM:383141,20211007,1
IDFM:383141,20211006,1
IDFM:383141,20211005,1
IDFM:383141,20211004,1
IDFM:383141,20211014,1
IDFM:383141,20211013,1
IDFM:383141,20211012,1
IDFM:383141,20211011,1
IDFM:383141,20211022,2
IDFM:383141,20211029,2
IDFM:383283,20211018,2
IDFM:383290,20211002,1
IDFM:383290,20211018,2
IDFM:383292,20211017,2
IDFM:383293,20211008,1
IDFM:383293,20211007,1
IDFM:383293,20211006,1
IDFM:383293,20211005,1
IDFM:383293,20211004,1
IDFM:383293,20211015,1
IDFM:383293,20211014,1
IDFM:383293,20211013,1
IDFM:383293,20211012,1
IDFM:383293,20211011,1
IDFM:383309,20211008,2
IDFM:383309,20211007,2
IDFM:383309,20211006,2
IDFM:383309,20211005,2
IDFM:383309,20211004,2
IDFM:383309,20211015,2
IDFM:383309,20211014,2
IDFM:383309,20211013,2
IDFM:383309,20211012,2
IDFM:383309,20211011,2
IDFM:383358,20211001,1
IDFM:383358,20211017,2
IDFM:383496,20211016,2
IDFM:383496,20211023,2
IDFM:383497,20211003,1
IDFM:383497,20211010,1
IDFM:383497,20211016,2
IDFM:383497,20211023,2
IDFM:383539,20211003,1
IDFM:383539,20211002,1
IDFM:383539,20211010,1
IDFM:383539,20211009,1
IDFM:383539,20211029,1
IDFM:383539,20211028,1
IDFM:383539,20211027,1
IDFM:383539,20211025,1
IDFM:383557,20211003,1
IDFM:383557,20211002,1
IDFM:383557,20211010,1
IDFM:383557,20211009,1
IDFM:383560,20211003,1
IDFM:383560,20211002,1
IDFM:383560,20211010,1
IDFM:383560,20211009,1
IDFM:383560,20211014,2
IDFM:383578,20211003,1
IDFM:383578,20211002,1
IDFM:383578,20211010,1
IDFM:383578,20211009,1
IDFM:383594,20211003,1
IDFM:383594,20211010,1
IDFM:383597,20211002,1
IDFM:383597,20211009,1
IDFM:383597,20211014,2
IDFM:383600,20211003,1
IDFM:383600,20211002,1
IDFM:383600,20211010,1
IDFM:383600,20211009,1
IDFM:383600,20211007,2
IDFM:383600,20211006,2
IDFM:383600,20211005,2
IDFM:383600,20211004,2
IDFM:383601,20211003,1
IDFM:383601,20211002,1
IDFM:383601,20211010,1
IDFM:383601,20211009,1
IDFM:383601,20211008,2
IDFM:383601,20211007,2
IDFM:383601,20211006,2
IDFM:383601,20211005,2
IDFM:383601,20211004,2
IDFM:383605,20211003,1
IDFM:383605,20211002,1
IDFM:383605,20211010,1
IDFM:383605,20211009,1
IDFM:383614,20211017,2
IDFM:383614,20211016,2
IDFM:383620,20211017,1
IDFM:383877,20211018,1
IDFM:383982,20211010,1
IDFM:383982,20211016,2
IDFM:383983,20211010,1
IDFM:383983,20211017,1
IDFM:383990,20211011,1
IDFM:383990,20211018,1
IDFM:384050,20211010,1
IDFM:384054,20211015,2
IDFM:384069,20211002,1
IDFM:384069,20211009,1
IDFM:384095,20211017,2
IDFM:384095,20211016,2
IDFM:384095,20211024,2
IDFM:384095,20211023,2
IDFM:384095,20211029,1
IDFM:384095,20211028,1
IDFM:384095,20211027,1
IDFM:384095,20211026,1
IDFM:384095,20211025,1
IDFM:384103,20211003,1
IDFM:384103,20211002,1
IDFM:384103,20211010,1
IDFM:384103,20211009,1
IDFM:384103,20211015,2
IDFM:384121,20211003,1
IDFM:384121,20211002,1
IDFM:384121,20211010,1
IDFM:384121,20211009,1
IDFM:384121,20211020,2
IDFM:384140,20211011,1
IDFM:384166,20211008,2
IDFM:384166,20211007,2
IDFM:384166,20211006,2
IDFM:384166,20211005,2
IDFM:384169,20211002,1
IDFM:384169,20211015,1
IDFM:384169,20211014,1
IDFM:384169,20211013,1
IDFM:384169,20211012,1
IDFM:384191,20211007,1
IDFM:384191,20211014,1
IDFM:384192,20211017,2
IDFM:384192,20211016,2
IDFM:384192,20211024,2
IDFM:384192,20211023,2
IDFM:384196,20211003,1
IDFM:384196,20211010,1
IDFM:384196,20211016,2
IDFM:384197,20211003,1
IDFM:384197,20211010,1
IDFM:384197,20211016,2
IDFM:384237,20211017,2
IDFM:384237,20211016,2
IDFM:384249,20211024,1
IDFM:384274,20211016,1
IDFM:384293,20211003,1
IDFM:384293,20211010,1
IDFM:384293,20211016,2
IDFM:384293,20211023,2
IDFM:384293,20211029,1
IDFM:384293,20211028,1
IDFM:384293,20211027,1
IDFM:384293,20211025,1
IDFM:384331,20211003,1
IDFM:384331,20211010,1
IDFM:384331,20211016,2
IDFM:384331,20211023,2
IDFM:384333,20211005,2
IDFM:384334,20211015,1
IDFM:384334,20211014,1
IDFM:384334,20211013,1
IDFM:384334,20211012,1
IDFM:384334,20211022,1
IDFM:384334,20211021,1
IDFM:384334,20211020,1
IDFM:384334,20211019,1
IDFM:384349,20211016,2
IDFM:384349,20211023,2
IDFM:384357,20211003,1
IDFM:384357,20211010,1
IDFM:384357,20211030,1
IDFM:384417,20211009,1
IDFM:384417,20211008,1
IDFM:384417,20211007,1
IDFM:384417,20211006,1
IDFM:384417,20211005,1
IDFM:384417,20211011,2
IDFM:384417,20211018,2
IDFM:384430,20211003,1
IDFM:384430,20211008,2
IDFM:384430,20211007,2
IDFM:384430,20211006,2
IDFM:384430,20211005,2
IDFM:384430,20211004,2
IDFM:384447,20211011,1
IDFM:384447,20211017,2
IDFM:384448,20211016,2
IDFM:384552,20211016,1
IDFM:384552,20211015,2
IDFM:384552,20211024,1
IDFM:384552,20211023,1
IDFM:384555,20211010,1
IDFM:384555,20211016,2
IDFM:384555,20211023,2
IDFM:384606,20211016,2
IDFM:384606,20211023,2
IDFM:384719,20211010,2
IDFM:384719,20211009,2
IDFM:384768,20211017,2
IDFM:384768,20211016,2
IDFM:384768,20211015,2
IDFM:384768,20211014,2
IDFM:384768,20211013,2
IDFM:384768,20211012,2
IDFM:384768,20211011,2
IDFM:384768,20211022,2
IDFM:384768,20211021,2
IDFM:384768,20211020,2
IDFM:384768,20211019,2
IDFM:384768,20211018,2
IDFM:384772,20211015,2
IDFM:384772,20211014,2
IDFM:384772,20211013,2
IDFM:384772,20211012,2
IDFM:384772,20211011,2
IDFM:384772,20211022,2
IDFM:384772,20211021,2
IDFM:384772,20211020,2
IDFM:384772,20211019,2
IDFM:384772,20211018,2
IDFM:384777,20211008,2
IDFM:384777,20211007,2
IDFM:384777,20211006,2
IDFM:384777,20211005,2
IDFM:384777,20211004,2
IDFM:384781,20211010,1
IDFM:384781,20211009,1
IDFM:384781,20211024,1
IDFM:384781,20211023,1
IDFM:384784,20211010,1
IDFM:384784,20211009,1
IDFM:384784,20211023,1
IDFM:384791,20211008,2
IDFM:384791,20211014,1
IDFM:384791,20211013,1
IDFM:384791,20211012,1
IDFM:384791,20211011,1
IDFM:384791,20211021,1
IDFM:384791,20211020,1
IDFM:384791,20211019,1
IDFM:384791,20211018,1
IDFM:384829,20211003,1
IDFM:384829,20211017,1
IDFM:384829,20211011,2
IDFM:384830,20211010,2
IDFM:384830,20211009,2
IDFM:384830,20211023,2
IDFM:384834,20211008,1
IDFM:384834,20211007,1
IDFM:384834,20211006,1
IDFM:384834,20211005,1
IDFM:384834,20211004,1
IDFM:384834,20211029,1
IDFM:384834,20211028,1
IDFM:384834,20211027,1
IDFM:384834,20211026,1
IDFM:384834,20211025,1
IDFM:384836,20211017,2
IDFM:384836,20211016,2
IDFM:384874,20211001,1
IDFM:384874,20211015,1
IDFM:384874,20211014,1
IDFM:384874,20211013,1
IDFM:384874,20211012,1
IDFM:384874,20211011,1
IDFM:384875,20211010,1
IDFM:384875,20211009,1
IDFM:384875,20211008,2
IDFM:384875,20211014,1
IDFM:384875,20211013,1
IDFM:384875,20211012,1
IDFM:384875,20211011,1
IDFM:384875,20211024,1
IDFM:384875,20211023,1
IDFM:384875,20211021,1
IDFM:384875,20211020,1
IDFM:384875,20211019,1
IDFM:384875,20211018,1
IDFM:384882,20211003,1
IDFM:384882,20211002,1
IDFM:384882,20211017,1
IDFM:384882,20211016,1
IDFM:384921,20211002,2
IDFM:384921,20211010,1
IDFM:384921,20211016,2
IDFM:384921,20211024,1
IDFM:384924,20211017,2
IDFM:384924,20211016,2
IDFM:384927,20211015,2
IDFM:384927,20211014,2
IDFM:384927,20211013,2
IDFM:384927,20211012,2
IDFM:384927,20211011,2
IDFM:384948,20211015,2
IDFM:384948,20211014,2
IDFM:384948,20211013,2
IDFM:384948,20211012,2
IDFM:384948,20211011,2
IDFM:384951,20211004,1
IDFM:384951,20211010,2
IDFM:384986,20211007,1
IDFM:384986,20211006,1
IDFM:384986,20211005,1
IDFM:384986,20211004,1
IDFM:384986,20211015,2
IDFM:384986,20211022,2
IDFM:384986,20211028,1
IDFM:384986,20211027,1
IDFM:384986,20211026,1
IDFM:384986,20211025,1
IDFM:385038,20211008,2
IDFM:385038,20211015,2
IDFM:385038,20211013,2
IDFM:385038,20211012,2
IDFM:385038,20211011,2
IDFM:385038,20211021,1
IDFM:385038,20211028,1
IDFM:385259,20211003,2
IDFM:385259,20211002,2
IDFM:385399,20211009,2
IDFM:385405,20211003,1
IDFM:385405,20211002,1
IDFM:385405,20211017,1
IDFM:385405,20211016,1
IDFM:385405,20211022,2
IDFM:385405,20211021,2
IDFM:385405,20211020,2
IDFM:385405,20211019,2
IDFM:385405,20211018,2
IDFM:385412,20211003,1
IDFM:385412,20211002,1
IDFM:385412,20211017,1
IDFM:385412,20211016,1
IDFM:385450,20211002,1
IDFM:385450,20211016,1
IDFM:385476,20211008,2
IDFM:385476,20211015,2
IDFM:385476,20211021,1
IDFM:385476,20211020,1
IDFM:385476,20211019,1
IDFM:385476,20211018,1
IDFM:385476,20211028,1
IDFM:385476,20211027,1
IDFM:385476,20211026,1
IDFM:385476,20211025,1
IDFM:385594,20211022,1
IDFM:385594,20211020,1
IDFM:385594,20211019,1
IDFM:385594,20211029,1
IDFM:385594,20211028,1
IDFM:385594,20211027,1
IDFM:385594,20211026,1
IDFM:385594,20211025,1
IDFM:385606,20211026,2
IDFM:385722,20211008,2
IDFM:385722,20211007,2
IDFM:385740,20211003,1
IDFM:385740,20211010,1
IDFM:385755,20211016,2
IDFM:385759,20211017,1
IDFM:385759,20211024,1
IDFM:385759,20211030,1
IDFM:385760,20211008,1
IDFM:385760,20211017,1
IDFM:385760,20211019,1
IDFM:385760,20211018,1
IDFM:385768,20211008,2
IDFM:385768,20211006,2
IDFM:385768,20211012,1
IDFM:385768,20211011,1
IDFM:385768,20211015,2
IDFM:385768,20211024,1
IDFM:385768,20211030,1
IDFM:385768,20211028,1
IDFM:385768,20211026,1
IDFM:385768,20211025,1
IDFM:385772,20211008,2
IDFM:385772,20211015,2
IDFM:385772,20211011,2
IDFM:385772,20211022,2
IDFM:385772,20211018,2
IDFM:385772,20211028,1
IDFM:385772,20211027,1
IDFM:385772,20211026,1
IDFM:385808,20211017,2
IDFM:385808,20211016,2
IDFM:385839,20211024,1
IDFM:385840,20211007,1
IDFM:385840,20211014,1
IDFM:385840,20211024,1
IDFM:385840,20211030,1
IDFM:385840,20211029,2
IDFM:385840,20211027,2
IDFM:385840,20211026,2
IDFM:385840,20211025,2
IDFM:385841,20211024,1
IDFM:385841,20211030,1
IDFM:385885,20211002,2
IDFM:385885,20211009,2
IDFM:385885,20211017,1
IDFM:385885,20211024,1
IDFM:385894,20211002,2
IDFM:385894,20211009,2
IDFM:385894,20211008,2
IDFM:385894,20211017,1
IDFM:385894,20211011,1
IDFM:385894,20211015,2
IDFM:385894,20211024,1
IDFM:385894,20211019,2
IDFM:385894,20211025,1
IDFM:385906,20211007,2
IDFM:385913,20211002,2
IDFM:385913,20211009,2
IDFM:385913,20211024,1
IDFM:385937,20211002,2
IDFM:385937,20211009,2
IDFM:385937,20211014,2
IDFM:385937,20211024,1
IDFM:385942,20211024,1
IDFM:385946,20211024,1
IDFM:385946,20211023,1
IDFM:385946,20211030,1
IDFM:385962,20211017,2
IDFM:385962,20211016,2
IDFM:386109,20211017,1
IDFM:386111,20211017,1
IDFM:386111,20211023,1
IDFM:386111,20211030,1
IDFM:386114,20211017,1
IDFM:386127,20211017,1
IDFM:386127,20211024,1
IDFM:386127,20211023,1
IDFM:386127,20211030,1
IDFM:386151,20211024,1
IDFM:386152,20211008,2
IDFM:386175,20211017,1
IDFM:386175,20211016,1
IDFM:386228,20211017,2
IDFM:386228,20211016,2
IDFM:386229,20211017,2
IDFM:386229,20211016,2
IDFM:386229,20211022,1
IDFM:386229,20211021,1
IDFM:386229,20211020,1
IDFM:386229,20211019,1
IDFM:386229,20211018,1
IDFM:386229,20211029,1
IDFM:386229,20211028,1
IDFM:386229,20211027,1
IDFM:386229,20211026,1
IDFM:386229,20211025,1
IDFM:386237,20211003,1
IDFM:386237,20211010,1
IDFM:386237,20211016,2
IDFM:386286,20211008,2
IDFM:386286,20211017,1
IDFM:386286,20211016,1
IDFM:386286,20211024,1
IDFM:386286,20211030,1
IDFM:386287,20211017,1
IDFM:386287,20211016,1
IDFM:386289,20211017,1
IDFM:386290,20211023,2
IDFM:386294,20211017,1
IDFM:386294,20211023,2
IDFM:386299,20211017,1
IDFM:386299,20211016,1
IDFM:386299,20211024,1
IDFM:386299,20211030,1
IDFM:386316,20211017,1
IDFM:386316,20211016,1
IDFM:386316,20211030,1
IDFM:386466,20211026,2
IDFM:386549,20211015,1
IDFM:386565,20211017,2
IDFM:386565,20211016,2
IDFM:386565,20211022,1
IDFM:386675,20211017,1
IDFM:386675,20211016,1
IDFM:386710,20211017,2
IDFM:386710,20211016,2
IDFM:386710,20211029,1
IDFM:386710,20211028,1
IDFM:386710,20211027,1
IDFM:386710,20211026,1
IDFM:386710,20211025,1
IDFM:386750,20211020,1
IDFM:386758,20211007,1
IDFM:386758,20211014,1
IDFM:386758,20211020,2
IDFM:386777,20211003,1
IDFM:386777,20211010,1
IDFM:386777,20211016,2
IDFM:386777,20211023,2
IDFM:386777,20211029,2
IDFM:386777,20211028,2
IDFM:386777,20211027,2
IDFM:386777,20211026,2
IDFM:386777,20211025,2
IDFM:386892,20211008,2
IDFM:386892,20211017,2
IDFM:386892,20211016,2
IDFM:386895,20211007,1
IDFM:386895,20211006,1
IDFM:386895,20211005,1
IDFM:386895,20211004,1
IDFM:386895,20211017,2
IDFM:386895,20211016,2
IDFM:386941,20211029,2
IDFM:386941,20211028,2
IDFM:386941,20211027,2
IDFM:386941,20211026,2
IDFM:386941,20211025,2
IDFM:387031,20211003,1
IDFM:387031,20211010,1
IDFM:387031,20211016,2
IDFM:387031,20211023,2
IDFM:387031,20211029,2
IDFM:387031,20211028,2
IDFM:387031,20211027,2
IDFM:387031,20211026,2
IDFM:387038,20211001,1
IDFM:387038,20211017,2
IDFM:387038,20211016,2
IDFM:387038,20211024,2
IDFM:387038,20211023,2
IDFM:387045,20211003,1
IDFM:387045,20211010,1
IDFM:387045,20211006,2
IDFM:387045,20211016,2
IDFM:387045,20211023,2
IDFM:387071,20211003,1
IDFM:387071,20211010,1
IDFM:387071,20211016,2
IDFM:387071,20211011,2
IDFM:387071,20211023,2
IDFM:387071,20211029,2
IDFM:387155,20211017,2
IDFM:387155,20211018,2
IDFM:387241,20211015,1
IDFM:387241,20211014,1
IDFM:387241,20211013,1
IDFM:387241,20211012,1
IDFM:387241,20211011,1
IDFM:387241,20211017,2
IDFM:387241,20211016,2
IDFM:387241,20211022,1
IDFM:387241,20211021,1
IDFM:387241,20211020,1
IDFM:387241,20211019,1
IDFM:387241,20211018,1
IDFM:387402,20211008,1
IDFM:387402,20211007,1
IDFM:387402,20211006,1
IDFM:387402,20211005,1
IDFM:387402,20211017,1
IDFM:387402,20211016,2
IDFM:387402,20211024,1
IDFM:387402,20211023,2
IDFM:387402,20211029,1
IDFM:387402,20211028,1
IDFM:387402,20211027,1
IDFM:387402,20211026,1
IDFM:387403,20211016,2
IDFM:387403,20211015,2
IDFM:387403,20211014,2
IDFM:387403,20211013,2
IDFM:387403,20211012,2
IDFM:387403,20211023,2
IDFM:387403,20211022,2
IDFM:387403,20211021,2
IDFM:387403,20211020,2
IDFM:387403,20211019,2
IDFM:387433,20211003,1
IDFM:387433,20211010,1
IDFM:387452,20211016,2
IDFM:387452,20211023,2
IDFM:387637,20211008,2
IDFM:387637,20211015,2
IDFM:387637,20211014,2
IDFM:387637,20211013,2
IDFM:387637,20211012,2
IDFM:387637,20211011,2
IDFM:387637,20211022,2
IDFM:387637,20211021,2
IDFM:387637,20211020,2
IDFM:387637,20211019,2
IDFM:387637,20211018,2
IDFM:387665,20211009,2
IDFM:387810,20211010,2
IDFM:387936,20211015,1
IDFM:387936,20211014,1
IDFM:387936,20211013,1
IDFM:387936,20211012,1
IDFM:387936,20211011,1
IDFM:387936,20211022,1
IDFM:387936,20211021,1
IDFM:387936,20211020,1
IDFM:387936,20211019,1
IDFM:387936,20211018,1
IDFM:388011,20211016,2
IDFM:388011,20211023,2
IDFM:388012,20211010,2
IDFM:388012,20211009,2
IDFM:388151,20211008,2
IDFM:388151,20211015,2
IDFM:388151,20211022,2
IDFM:388151,20211028,1
IDFM:388151,20211027,1
IDFM:388151,20211026,1
IDFM:388151,20211025,1
IDFM:388276,20211030,1
IDFM:388452,20211023,2
IDFM:388463,20211009,1
IDFM:388500,20211002,1
IDFM:388600,20211017,1
IDFM:388600,20211016,1
IDFM:388600,20211024,1
IDFM:388600,20211023,1
IDFM:388602,20211016,1
IDFM:388602,20211024,1
IDFM:388602,20211023,1
IDFM:388603,20211017,1
IDFM:388604,20211017,1
IDFM:388604,20211024,1
IDFM:388604,20211023,1
IDFM:388607,20211024,1
IDFM:388797,20211017,1
IDFM:388797,20211018,1
IDFM:388798,20211017,1
IDFM:388798,20211016,1
IDFM:388798,20211030,1
IDFM:388799,20211024,1
IDFM:388799,20211023,1
IDFM:388799,20211030,1
IDFM:388801,20211009,2
IDFM:388801,20211017,1
IDFM:388801,20211024,1
IDFM:389051,20211017,1
IDFM:389051,20211023,2
IDFM:389266,20211010,1
IDFM:389333,20211023,1
IDFM:389406,20211018,1
IDFM:389422,20211030,1
IDFM:389468,20211030,1
IDFM:389468,20211029,1
IDFM:389719,20211002,1
IDFM:389719,20211023,1
IDFM:390819,20211021,1
IDFM:390819,20211020,1
IDFM:390819,20211019,1
IDFM:390820,20211020,1
IDFM:390820,20211019,1
IDFM:390820,20211018,1
IDFM:390821,20211009,1
IDFM:390821,20211008,1
IDFM:390821,20211021,2
IDFM:390821,20211020,2
IDFM:390821,20211019,2
IDFM:390822,20211008,1
IDFM:390822,20211007,1
IDFM:390822,20211020,2
IDFM:390822,20211019,2
IDFM:390822,20211018,2
IDFM:390938,20211001,1
IDFM:390938,20211008,1
IDFM:390938,20211007,1
IDFM:390938,20211006,1
IDFM:390938,20211013,1
IDFM:390938,20211019,2
IDFM:390938,20211018,2
IDFM:391188,20211002,1
IDFM:391188,20211009,1
IDFM:391188,20211008,1
IDFM:391188,20211007,1
IDFM:391188,20211014,1
IDFM:391188,20211020,2
IDFM:391188,20211019,2
IDFM:391918,20211024,1
IDFM:391918,20211023,1
IDFM:392020,20211022,2
IDFM:392020,20211021,2
IDFM:392020,20211020,2
IDFM:392020,20211019,2
IDFM:392020,20211018,2
IDFM:392097,20211010,2
IDFM:392097,20211009,2
IDFM:392102,20211024,1
IDFM:392102,20211023,1
IDFM:392117,20211007,1
IDFM:392117,20211006,1
IDFM:392117,20211005,1
IDFM:392117,20211014,1
IDFM:392117,20211013,1
IDFM:392117,20211012,1
IDFM:392118,20211022,2
IDFM:392118,20211021,2
IDFM:392118,20211020,2
IDFM:392118,20211019,2
IDFM:392939,20211010,2
IDFM:392939,20211009,2
IDFM:393117,20211011,2
IDFM:393121,20211008,2
IDFM:393121,20211015,2
IDFM:393121,20211021,1
IDFM:393121,20211020,1
IDFM:393121,20211019,1
IDFM:393121,20211018,1
IDFM:393140,20211010,2
IDFM:393140,20211011,2
IDFM:393141,20211010,2
IDFM:393418,20211021,2
IDFM:393418,20211020,2
IDFM:393418,20211019,2
IDFM:393418,20211018,2
IDFM:393695,20211009,2
IDFM:393704,20211002,2
IDFM:393704,20211009,2
IDFM:393705,20211002,2
IDFM:393705,20211007,1
IDFM:393705,20211006,1
IDFM:393705,20211005,1
IDFM:393705,20211004,1
IDFM:393705,20211009,2
IDFM:393705,20211017,1
IDFM:393705,20211014,1
IDFM:393705,20211013,1
IDFM:393705,20211012,1
IDFM:393705,20211011,1
IDFM:393705,20211024,1
IDFM:393705,20211022,2
IDFM:393705,20211029,2
IDFM:393725,20211017,1
IDFM:393725,20211015,2
IDFM:393725,20211024,1
IDFM:393730,20211030,1
IDFM:393733,20211008,2
IDFM:393733,20211017,1
IDFM:393733,20211015,2
IDFM:393733,20211024,1
IDFM:393733,20211023,1
IDFM:393733,20211021,1
IDFM:393733,20211020,1
IDFM:393733,20211019,1
IDFM:393733,20211018,1
IDFM:393733,20211030,1
IDFM:393733,20211028,1
IDFM:393733,20211027,1
IDFM:393733,20211026,1
IDFM:393733,20211025,1
IDFM:393797,20211007,1
IDFM:393797,20211006,1
IDFM:393797,20211005,1
IDFM:393797,20211004,1
IDFM:393797,20211017,1
IDFM:393797,20211014,1
IDFM:393797,20211013,1
IDFM:393797,20211012,1
IDFM:393797,20211011,1
IDFM:393797,20211024,1
IDFM:393797,20211023,1
IDFM:393797,20211022,2
IDFM:393797,20211030,1
IDFM:393797,20211029,2
IDFM:393801,20211017,1
IDFM:393801,20211024,1
IDFM:393808,20211002,2
IDFM:393808,20211009,2
IDFM:393808,20211008,2
IDFM:393808,20211017,1
IDFM:393808,20211015,2
IDFM:393808,20211024,1
IDFM:393808,20211021,1
IDFM:393808,20211020,1
IDFM:393808,20211019,1
IDFM:393808,20211018,1
IDFM:393808,20211028,1
IDFM:393808,20211027,1
IDFM:393808,20211026,1
IDFM:393808,20211025,1
IDFM:393839,20211006,2
IDFM:393839,20211011,2
IDFM:393839,20211024,1
IDFM:393839,20211030,1
IDFM:393850,20211018,1
IDFM:393850,20211030,1
IDFM:393850,20211025,1
IDFM:393857,20211016,1
IDFM:393866,20211003,1
IDFM:393866,20211009,2
IDFM:393873,20211003,1
IDFM:393873,20211004,1
IDFM:393873,20211024,1
IDFM:393875,20211003,1
IDFM:393875,20211009,2
IDFM:393875,20211011,1
IDFM:393878,20211003,1
IDFM:393878,20211009,2
IDFM:393881,20211003,1
IDFM:393881,20211024,1
IDFM:393884,20211008,2
IDFM:393884,20211007,2
IDFM:393893,20211007,1
IDFM:393898,20211008,2
IDFM:393898,20211007,2
IDFM:393928,20211024,1
IDFM:393928,20211021,1
IDFM:393928,20211020,1
IDFM:393928,20211019,1
IDFM:393928,20211018,1
IDFM:393928,20211030,1
IDFM:393928,20211028,1
IDFM:393928,20211027,1
IDFM:393928,20211026,1
IDFM:393928,20211025,1
IDFM:393930,20211009,2
IDFM:393930,20211008,2
IDFM:393930,20211015,2
IDFM:393930,20211021,1
IDFM:393930,20211020,1
IDFM:393930,20211019,1
IDFM:393930,20211018,1
IDFM:393930,20211028,1
IDFM:393930,20211027,1
IDFM:393930,20211026,1
IDFM:393930,20211025,1
IDFM:393934,20211026,2
IDFM:393935,20211008,2
IDFM:393935,20211007,2
IDFM:393935,20211030,1
IDFM:393938,20211030,1
IDFM:393954,20211024,1
IDFM:393957,20211014,2
IDFM:393971,20211004,1
IDFM:393971,20211025,1
IDFM:393992,20211016,1
IDFM:393992,20211023,1
IDFM:394007,20211010,2
IDFM:394008,20211010,2
IDFM:394008,20211009,2
IDFM:394017,20211008,2
IDFM:394017,20211007,2
IDFM:394017,20211024,1
IDFM:394017,20211030,1
IDFM:394017,20211025,1
IDFM:394045,20211017,1
IDFM:394045,20211024,1
IDFM:394045,20211030,1
IDFM:394112,20211016,2
IDFM:394134,20211016,2
IDFM:394143,20211017,2
IDFM:394164,20211007,2
IDFM:394164,20211006,2
IDFM:394164,20211005,2
IDFM:394183,20211008,2
IDFM:394183,20211007,2
IDFM:394217,20211002,1
IDFM:394217,20211009,1
IDFM:394226,20211008,2
IDFM:394226,20211015,2
IDFM:394226,20211022,2
IDFM:394226,20211030,1
IDFM:394226,20211028,1
IDFM:394226,20211027,1
IDFM:394226,20211026,1
IDFM:394226,20211025,1
IDFM:394228,20211002,1
IDFM:394228,20211009,1
IDFM:394235,20211016,2
IDFM:394235,20211023,2
IDFM:394235,20211029,2
IDFM:394235,20211028,2
IDFM:394235,20211027,2
IDFM:394235,20211026,2
IDFM:394235,20211025,2
IDFM:394293,20211007,1
IDFM:394293,20211006,1
IDFM:394293,20211005,1
IDFM:394293,20211004,1
IDFM:394294,20211001,1
IDFM:394294,20211008,1
IDFM:394295,20211008,1
IDFM:394295,20211007,1
IDFM:394295,20211006,1
IDFM:394295,20211005,1
IDFM:394307,20211017,2
IDFM:394323,20211016,2
IDFM:394381,20211020,2
IDFM:394381,20211019,2
IDFM:394484,20211002,2
IDFM:394484,20211010,1
IDFM:394484,20211016,2
IDFM:394488,20211005,2
IDFM:394524,20211010,1
IDFM:394524,20211016,2
IDFM:394533,20211010,1
IDFM:394533,20211011,1
IDFM:394533,20211024,1
IDFM:394536,20211009,1
IDFM:394536,20211007,1
IDFM:394536,20211006,1
IDFM:394536,20211005,1
IDFM:394536,20211004,1
IDFM:397285,20211017,1
IDFM:397285,20211016,1
IDFM:397340,20211003,1
IDFM:397340,20211010,1
IDFM:397340,20211004,1
IDFM:397340,20211011,1
IDFM:397345,20211017,1
IDFM:397345,20211016,1
IDFM:397489,20211003,1
IDFM:397489,20211010,1
IDFM:397489,20211023,2
IDFM:398137,20211016,2
IDFM:398617,20211010,2
IDFM:398617,20211009,2
IDFM:398617,20211024,2
IDFM:398617,20211023,2
IDFM:398621,20211009,2
IDFM:398621,20211023,2
IDFM:399736,20211003,1
IDFM:399736,20211004,1
IDFM:399736,20211017,1
IDFM:399736,20211018,1
IDFM:400457,20211008,1
IDFM:400457,20211007,1
IDFM:400457,20211006,1
IDFM:400457,20211005,1
IDFM:400461,20211025,1
IDFM:400772,20211003,1
IDFM:400772,20211002,1
IDFM:400772,20211024,1
IDFM:400772,20211023,1
IDFM:401558,20211030,1
IDFM:401558,20211029,2
IDFM:401558,20211028,2
IDFM:401558,20211027,2
IDFM:401558,20211026,2
IDFM:401558,20211025,2
IDFM:402381,20211004,1
IDFM:402381,20211009,2
IDFM:402381,20211008,2
IDFM:402381,20211007,2
IDFM:402381,20211006,2
IDFM:402381,20211005,2
IDFM:402381,20211025,1
IDFM:402383,20211004,1
IDFM:402383,20211025,1
IDFM:402667,20211010,1
IDFM:402667,20211008,1
IDFM:402667,20211007,1
IDFM:402667,20211006,1
IDFM:402667,20211005,1
IDFM:402667,20211011,1
IDFM:402670,20211010,1
IDFM:402670,20211009,1
IDFM:402670,20211007,1
IDFM:402670,20211006,1
IDFM:402670,20211005,1
IDFM:402670,20211004,1
IDFM:402960,20211016,2
IDFM:402960,20211024,1
IDFM:404299,20211002,2
IDFM:404299,20211009,2
IDFM:404299,20211014,2
IDFM:404419,20211017,2
IDFM:404695,20211029,2
IDFM:404695,20211028,2
IDFM:404695,20211027,2
IDFM:404695,20211026,2
IDFM:404695,20211025,2
IDFM:404742,20211008,2
IDFM:404742,20211015,2
IDFM:404742,20211022,2
IDFM:404742,20211028,1
IDFM:404742,20211026,1
IDFM:404742,20211025,1
IDFM:63040,20211024,1
IDFM:63040,20211030,1
IDFM:63040,20211029,1
IDFM:63040,20211028,1
IDFM:63040,20211027,1
IDFM:63040,20211026,1
IDFM:63040,20211025,1
IDFM:145282,20211002,1
IDFM:145282,20211009,1
IDFM:145282,20211022,1
IDFM:145282,20211021,1
IDFM:145282,20211020,1
IDFM:145282,20211019,1
IDFM:145282,20211018,1
IDFM:145282,20211029,1
IDFM:145282,20211028,1
IDFM:145282,20211027,1
IDFM:145282,20211026,1
IDFM:145282,20211025,1
IDFM:271849,20211007,1
IDFM:271849,20211006,1
IDFM:271849,20211005,1
IDFM:271849,20211004,1
IDFM:271849,20211014,1
IDFM:271849,20211013,1
IDFM:271849,20211012,1
IDFM:271849,20211011,1
IDFM:271849,20211022,1
IDFM:271849,20211029,1
IDFM:383493,20211001,1
IDFM:383493,20211007,1
IDFM:383493,20211006,1
IDFM:383493,20211005,1
IDFM:383493,20211004,1
IDFM:383862,20211024,1
IDFM:383862,20211025,1
IDFM:383876,20211017,1
IDFM:383876,20211018,1
IDFM:384184,20211024,1
IDFM:384184,20211029,1
IDFM:384184,20211028,1
IDFM:384184,20211027,1
IDFM:384184,20211026,1
IDFM:384184,20211025,1
IDFM:384922,20211003,1
IDFM:384922,20211004,1
IDFM:384922,20211017,1
IDFM:384922,20211018,1
IDFM:385757,20211024,1
IDFM:385757,20211030,1
IDFM:385883,20211015,1
IDFM:385883,20211019,1
IDFM:385883,20211018,1
IDFM:386157,20211017,1
IDFM:386157,20211023,1
IDFM:386157,20211022,1
IDFM:386157,20211021,1
IDFM:386157,20211020,1
IDFM:386157,20211019,1
IDFM:386157,20211018,1
IDFM:387048,20211011,1
IDFM:387048,20211029,1
IDFM:388330,20211015,1
IDFM:388330,20211014,1
IDFM:388330,20211013,1
IDFM:388330,20211012,1
IDFM:388330,20211011,1
IDFM:388330,20211030,1
IDFM:388446,20211017,1
IDFM:388446,20211030,1
IDFM:389402,20211016,1
IDFM:389402,20211024,1
IDFM:391758,20211010,1
IDFM:391758,20211011,1
IDFM:394285,20211002,1
IDFM:394285,20211009,1
IDFM:394285,20211017,1
IDFM:394285,20211024,1
IDFM:394485,20211001,1
IDFM:394485,20211004,1
IDFM:397668,20211002,1
IDFM:397668,20211009,1
IDFM:397668,20211008,1
IDFM:397668,20211007,1
IDFM:397668,20211006,1
IDFM:397668,20211005,1
IDFM:397668,20211024,1
IDFM:397668,20211025,1
IDFM:399187,20211010,1
IDFM:399187,20211011,1
IDFM:399187,20211030,1
IDFM:399187,20211029,1
IDFM:399187,20211028,1
IDFM:399187,20211027,1
IDFM:399187,20211026,1
IDFM:399233,20211009,1
IDFM:399233,20211029,1
IDFM:399233,20211028,1
IDFM:399233,20211027,1
IDFM:399233,20211026,1
IDFM:399233,20211025,1
IDFM:399234,20211010,1
IDFM:399234,20211009,1
IDFM:399234,20211029,1
IDFM:399234,20211028,1
IDFM:399234,20211027,1
IDFM:399234,20211026,1
IDFM:399234,20211025,1
IDFM:400467,20211001,1
IDFM:400467,20211024,1
IDFM:403341,20211001,1
IDFM:403341,20211030,1
